name: 'Admin Client Management'
description: |-

  APIs for managing clients in the admin panel.
  These endpoints allow administrators to view and manage client accounts,
  including listing all clients and viewing individual client details.
endpoints:
  -
    httpMethods:
      - GET
    uri: api/admin/clients
    metadata:
      groupName: 'Admin Client Management'
      groupDescription: |-

        APIs for managing clients in the admin panel.
        These endpoints allow administrators to view and manage client accounts,
        including listing all clients and viewing individual client details.
      subgroup: ''
      subgroupDescription: ''
      title: 'Display a listing of clients with optional filters.'
      description: |-
        This endpoint returns a paginated list of all clients in the system.
        Results can be filtered by client name for easy searching.
        The response includes pagination metadata for easy navigation.
      authenticated: true
      deprecated: false
      custom: []
    headers:
      Content-Type: application/json
      Accept: application/json
      Accept-Language: en
    urlParameters: []
    cleanUrlParameters: []
    queryParameters:
      name:
        name: name
        description: 'Optional filter by client name (searches in first_name).'
        required: false
        example: سارة
        type: string
        enumValues: []
        exampleWasSpecified: true
        nullable: false
        custom: []
      page:
        name: page
        description: 'Optional page number for pagination (default: 1).'
        required: false
        example: 2
        type: integer
        enumValues: []
        exampleWasSpecified: true
        nullable: false
        custom: []
    cleanQueryParameters:
      name: سارة
      page: 2
    bodyParameters:
      name:
        name: name
        description: 'Must not be greater than 255 characters.'
        required: false
        example: vmqeopfuudtdsufvyvddq
        type: string
        enumValues: []
        exampleWasSpecified: false
        nullable: true
        custom: []
    cleanBodyParameters:
      name: vmqeopfuudtdsufvyvddq
    fileParameters: []
    responses:
      -
        status: 200
        content: |-
          {
            "status": true,
            "error_num": null,
            "message": "Clients retrieved successfully",
            "data": [
              {
                "id": 1,
                "first_name": "سارة",
                "last_name": "أحمد",
                "email": "sara@example.com",
                "email_verified_at": "2025-08-24T10:30:00.000000Z",
                "phone": "+201234567890",
                "type": "client",
                "is_active": true,
                "about_me": "مديرة مشاريع تقنية",
                "profile_picture": null,
                "company": "شركة التقنيات المتقدمة",
                "created_at": "2025-08-24T10:30:00.000000Z",
                "updated_at": "2025-08-24T10:30:00.000000Z"
              },
              {
                "id": 2,
                "first_name": "محمد",
                "last_name": "علي",
                "email": "mohamed@example.com",
                "email_verified_at": "2025-08-25T10:30:00.000000Z",
                "phone": "+201987654321",
                "type": "client",
                "is_active": true,
                "about_me": null,
                "profile_picture": null,
                "company": null,
                "created_at": "2025-08-25T10:30:00.000000Z",
                "updated_at": "2025-08-25T10:30:00.000000Z"
              }
            ],
            "current_page": 1,
            "from": 1,
            "last_page": 3,
            "per_page": 10,
            "to": 10,
            "total": 25,
            "links": {
              "first": "http://localhost/api/admin/clients?page=1",
              "last": "http://localhost/api/admin/clients?page=3",
              "prev": null,
              "next": "http://localhost/api/admin/clients?page=2"
            }
          }
        headers: []
        description: 'Clients retrieved successfully'
        custom: []
      -
        status: 400
        content: |-
          {
            "status": false,
            "error_num": 400,
            "message": "The name field must be a string."
          }
        headers: []
        description: 'Validation error'
        custom: []
      -
        status: 401
        content: |-
          {
            "status": false,
            "error_num": 401,
            "message": "Unauthenticated"
          }
        headers: []
        description: ''
        custom: []
      -
        status: 403
        content: |-
          {
            "status": false,
            "error_num": 403,
            "message": "You don't have permission to access this resource"
          }
        headers: []
        description: ''
        custom: []
    responseFields: []
    auth: []
    controller: null
    method: null
    route: null
    custom: []
  -
    httpMethods:
      - GET
    uri: 'api/admin/clients/{id}'
    metadata:
      groupName: 'Admin Client Management'
      groupDescription: |-

        APIs for managing clients in the admin panel.
        These endpoints allow administrators to view and manage client accounts,
        including listing all clients and viewing individual client details.
      subgroup: ''
      subgroupDescription: ''
      title: 'Display the specified client details.'
      description: |-
        This endpoint returns detailed information about a specific client account.
        Includes all client profile information and account status.
      authenticated: true
      deprecated: false
      custom: []
    headers:
      Content-Type: application/json
      Accept: application/json
      Accept-Language: en
    urlParameters:
      id:
        name: id
        description: 'The ID of the client to view.'
        required: true
        example: 1
        type: integer
        enumValues: []
        exampleWasSpecified: true
        nullable: false
        custom: []
    cleanUrlParameters:
      id: 1
    queryParameters: []
    cleanQueryParameters: []
    bodyParameters: []
    cleanBodyParameters: []
    fileParameters: []
    responses:
      -
        status: 200
        content: |-
          {
            "status": true,
            "error_num": null,
            "message": "Client retrieved successfully",
            "data": {
              "id": 1,
              "first_name": "سارة",
              "last_name": "أحمد",
              "email": "sara@example.com",
              "email_verified_at": "2025-08-24T10:30:00.000000Z",
              "phone": "+201234567890",
              "type": "client",
              "is_active": true,
              "about_me": "مديرة مشاريع تقنية مع خبرة 5 سنوات في إدارة فرق التطوير",
              "profile_picture": "https://example.com/storage/profiles/sara.jpg",
              "company": "شركة التقنيات المتقدمة",
              "created_at": "2025-08-24T10:30:00.000000Z",
              "updated_at": "2025-09-02T10:30:00.000000Z"
            }
          }
        headers: []
        description: 'Client details retrieved successfully'
        custom: []
      -
        status: 401
        content: |-
          {
            "status": false,
            "error_num": 401,
            "message": "Unauthenticated"
          }
        headers: []
        description: ''
        custom: []
      -
        status: 403
        content: |-
          {
            "status": false,
            "error_num": 403,
            "message": "You don't have permission to access this resource"
          }
        headers: []
        description: ''
        custom: []
      -
        status: 404
        content: |-
          {
            "status": false,
            "error_num": 404,
            "message": "Client not found"
          }
        headers: []
        description: ''
        custom: []
    responseFields: []
    auth: []
    controller: null
    method: null
    route: null
    custom: []
