name: 'Client Project Management'
description: ''
endpoints:
  -
    httpMethods:
      - GET
    uri: api/clients/projects
    metadata:
      groupName: 'Client Project Management'
      groupDescription: ''
      subgroup: ''
      subgroupDescription: ''
      title: 'List client projects'
      description: |-
        Retrieve a paginated list of projects belonging to the authenticated client.
        This endpoint allows clients to view and filter their posted projects by status
        with optional pagination control. Results include complete project details
        with categories, attachments, and user information.
      authenticated: true
      deprecated: false
      custom: []
    headers:
      Content-Type: application/json
      Accept: application/json
      Accept-Language: en
    urlParameters: []
    cleanUrlParameters: []
    queryParameters:
      status:
        name: status
        description: 'optional Filter projects by status. Available values: active, in_progress, completed.'
        required: false
        example: active
        type: string
        enumValues: []
        exampleWasSpecified: true
        nullable: false
        custom: []
      per_page:
        name: per_page
        description: 'optional Number of projects per page (default: 15, minimum: 1).'
        required: false
        example: 10
        type: integer
        enumValues: []
        exampleWasSpecified: true
        nullable: false
        custom: []
    cleanQueryParameters:
      status: active
      per_page: 10
    bodyParameters:
      status:
        name: status
        description: ''
        required: false
        example: completed
        type: string
        enumValues:
          - active
          - in_progress
          - completed
        exampleWasSpecified: false
        nullable: true
        custom: []
      per_page:
        name: per_page
        description: 'Must be at least 1.'
        required: false
        example: 73
        type: integer
        enumValues: []
        exampleWasSpecified: false
        nullable: true
        custom: []
    cleanBodyParameters:
      status: completed
      per_page: 73
    fileParameters: []
    responses:
      -
        status: 200
        content: |-
          {
            "status": true,
            "error_num": 200,
            "message": "Success",
            "data": {
              "current_page": 1,
              "data": [
                {
                  "id": 5,
                  "title": "E-commerce Website Development",
                  "description": "I need a complete e-commerce website with product catalog, shopping cart, payment integration, and admin dashboard. The site should be responsive and SEO-optimized.",
                  "category_id": "4",
                  "subcategory_id": "5",
                  "budget": "$1000-$2000",
                  "deadline_unit": "days",
                  "deadline": "12",
                  "status": "active",
                  "comments_enabled": true,
                  "proposals_enabled": true,
                  "created_at": "2025-10-06T09:11:11.000000Z",
                  "updated_at": "2025-10-06T09:11:11.000000Z",
                  "category": {
                    "id": 4,
                    "name": "Design",
                    "image": "storage/categories/68dd364f26e71.svg",
                    "parent_id": null,
                    "created_at": "2025-09-07T08:44:46.000000Z",
                    "updated_at": "2025-10-01T14:10:23.000000Z"
                  },
                  "subcategory": {
                    "id": 5,
                    "name": "Web",
                    "image": null,
                    "parent_id": 4,
                    "created_at": "2025-09-07T08:44:46.000000Z",
                    "updated_at": "2025-09-07T08:44:46.000000Z"
                  },
                  "attachments": [
                    {
                      "id": 2,
                      "file_path": "storage/projects/68e3876bcc657.PNG",
                      "user_id": 2,
                      "project_id": 5,
                      "created_at": "2025-10-06T09:10:03.000000Z",
                      "updated_at": "2025-10-06T09:11:11.000000Z"
                    }
                  ],
                  "user": {
                    "id": 2,
                    "name": "Ahmed test",
                    "email": "freelancer2@gmail.com",
                    "type": "client",
                    "is_active": true,
                    "profile_picture": "storage/profiles/68d28083a3dd1.PNG",
                    "company": "شركة التقنيات المتقدمة",
                    "country": "asd",
                    "city": "asd",
                    "is_verified": false,
                    "user_verification_status": "approved",
                    "created_at": "2025-09-03T11:34:36.000000Z",
                    "updated_at": "2025-09-23T11:12:03.000000Z"
                  }
                },
                {
                  "id": 3,
                  "title": "Mobile App UI/UX Design",
                  "description": "Looking for a talented designer to create modern and user-friendly UI/UX design for a mobile application.",
                  "category_id": "2",
                  "subcategory_id": "6",
                  "budget": "$500-$800",
                  "deadline_unit": "days",
                  "deadline": "7",
                  "status": "in_progress",
                  "comments_enabled": true,
                  "proposals_enabled": false,
                  "created_at": "2025-10-05T14:20:30.000000Z",
                  "updated_at": "2025-10-06T08:15:45.000000Z",
                  "category": {
                    "id": 2,
                    "name": "Design & Creative",
                    "image": "storage/categories/68dd364f26e72.svg",
                    "parent_id": null,
                    "created_at": "2025-09-07T08:44:46.000000Z",
                    "updated_at": "2025-10-01T14:10:23.000000Z"
                  },
                  "subcategory": {
                    "id": 6,
                    "name": "UI/UX Design",
                    "image": null,
                    "parent_id": 2,
                    "created_at": "2025-09-07T08:44:46.000000Z",
                    "updated_at": "2025-09-07T08:44:46.000000Z"
                  },
                }
              ],
              "first_page_url": "http://localhost/api/clients/projects?page=1",
              "from": 1,
              "last_page": 2,
              "last_page_url": "http://localhost/api/clients/projects?page=2",
              "links": [
                {
                  "url": null,
                  "label": "&laquo; Previous",
                  "active": false
                },
                {
                  "url": "http://localhost/api/clients/projects?page=1",
                  "label": "1",
                  "active": true
                },
                {
                  "url": "http://localhost/api/clients/projects?page=2",
                  "label": "2",
                  "active": false
                },
                {
                  "url": "http://localhost/api/clients/projects?page=2",
                  "label": "Next &raquo;",
                  "active": false
                }
              ],
              "next_page_url": "http://localhost/api/clients/projects?page=2",
              "path": "http://localhost/api/clients/projects",
              "per_page": 15,
              "prev_page_url": null,
              "to": 15,
              "total": 23
            }
          }
        headers: []
        description: 'Projects retrieved successfully'
        custom: []
      -
        status: 200
        content: |-
          {
            "status": true,
            "error_num": 200,
            "message": "Success",
            "data": {
              "current_page": 1,
              "data": [],
              "first_page_url": "http://localhost/api/clients/projects?page=1",
              "from": null,
              "last_page": 1,
              "last_page_url": "http://localhost/api/clients/projects?page=1",
              "links": [
                {
                  "url": null,
                  "label": "&laquo; Previous",
                  "active": false
                },
                {
                  "url": "http://localhost/api/clients/projects?page=1",
                  "label": "1",
                  "active": true
                },
                {
                  "url": null,
                  "label": "Next &raquo;",
                  "active": false
                }
              ],
              "next_page_url": null,
              "path": "http://localhost/api/clients/projects",
              "per_page": 15,
              "prev_page_url": null,
              "to": null,
              "total": 0
            }
          }
        headers: []
        description: 'No projects found'
        custom: []
      -
        status: 400
        content: |-
          {
            "status": false,
            "error_num": 400,
            "message": "The selected status is invalid."
          }
        headers: []
        description: 'Invalid status filter'
        custom: []
      -
        status: 400
        content: |-
          {
            "status": false,
            "error_num": 400,
            "message": "The per page field must be at least 1."
          }
        headers: []
        description: 'Invalid per_page parameter'
        custom: []
      -
        status: 401
        content: |-
          {
            "status": false,
            "error_num": 401,
            "message": "Unauthenticated"
          }
        headers: []
        description: Unauthenticated
        custom: []
      -
        status: 403
        content: |-
          {
            "status": false,
            "error_num": 403,
            "message": "Access denied. Client role required."
          }
        headers: []
        description: 'Not a client'
        custom: []
    responseFields: []
    auth: []
    controller: null
    method: null
    route: null
    custom: []
  -
    httpMethods:
      - POST
    uri: api/clients/projects
    metadata:
      groupName: 'Client Project Management'
      groupDescription: ''
      subgroup: ''
      subgroupDescription: ''
      title: 'Create new project'
      description: |-
        Create a new project posting for clients. This endpoint allows authenticated clients
        to post new projects with detailed requirements including budget, deadline,
        attachments, and category specifications. The project will be visible to freelancers
        who can then submit proposals.
      authenticated: true
      deprecated: false
      custom: []
    headers:
      Content-Type: application/json
      Accept: application/json
      Accept-Language: en
    urlParameters: []
    cleanUrlParameters: []
    queryParameters: []
    cleanQueryParameters: []
    bodyParameters:
      title:
        name: title
        description: 'Project title - A clear and descriptive name for your project. Example                                                                     : E-commerce Website Development'
        required: true
        example: consequatur
        type: string
        enumValues: []
        exampleWasSpecified: false
        nullable: false
        custom: []
      description:
        name: description
        description: 'Detailed project description - Explain your project requirements,                                                                      goals, and expectations (minimum characters required).'
        required: true
        example: 'I need a complete e-commerce website with product catalog, shopping cart, payment integration, and admin dashboard. The site should be responsive and SEO-optimized.'
        type: string
        enumValues: []
        exampleWasSpecified: true
        nullable: false
        custom: []
      category_id:
        name: category_id
        description: 'Main category ID - Must be a valid parent category that matches your project type. Example                                          : 4'
        required: true
        example: 17
        type: integer
        enumValues: []
        exampleWasSpecified: false
        nullable: false
        custom: []
      subcategory_id:
        name: subcategory_id
        description: 'optional Subcategory ID - Must belong to the selected main category for more specific categorization. Example                             : 5'
        required: false
        example: 17
        type: integer
        enumValues: []
        exampleWasSpecified: false
        nullable: true
        custom: []
      budget:
        name: budget
        description: 'Project budget - Specify your budget range or fixed amount for this project. Example                                                      : $1000-$2000'
        required: true
        example: consequatur
        type: string
        enumValues: []
        exampleWasSpecified: false
        nullable: false
        custom: []
      deadline_unit:
        name: deadline_unit
        description: 'Time unit for project deadline - The unit of measurement for your deadline. Must be one of                                         : hours, days,                                                    months. Example                                          : days'
        required: true
        example: consequatur
        type: string
        enumValues: []
        exampleWasSpecified: false
        nullable: false
        custom: []
      deadline:
        name: deadline
        description: 'Project deadline - Number of units (hours/days/months) for project completion. Example                                                 : 12'
        required: true
        example: 17
        type: integer
        enumValues: []
        exampleWasSpecified: false
        nullable: false
        custom: []
      attachment_ids:
        name: attachment_ids
        description: 'optional Array of attachment IDs - Files that provide additional project details (must be uploaded first using upload endpoint).'
        required: false
        example:
          - 2
          - 3
          - 4
        type: 'integer[]'
        enumValues: []
        exampleWasSpecified: true
        nullable: false
        custom: []
    cleanBodyParameters:
      title: consequatur
      description: 'I need a complete e-commerce website with product catalog, shopping cart, payment integration, and admin dashboard. The site should be responsive and SEO-optimized.'
      category_id: 17
      subcategory_id: 17
      budget: consequatur
      deadline_unit: consequatur
      deadline: 17
      attachment_ids:
        - 2
        - 3
        - 4
    fileParameters: []
    responses:
      -
        status: 200
        content: |-
          {
            "status": true,
            "error_num": 200,
            "message": "Project created successfully",
            "data": {
              "id": 5,
              "title": "E-commerce Website Development",
              "description": "I need a complete e-commerce website with product catalog, shopping cart, payment integration, and admin dashboard. The site should be responsive and SEO-optimized with modern design and user-friendly interface.",
              "category_id": "4",
              "subcategory_id": "5",
              "budget": "$1000-$2000",
              "deadline_unit": "days",
              "deadline": "12",
              "status": "active",
              "comments_enabled": true,
              "proposals_enabled": true,
              "created_at": "2025-10-06T09:11:11.000000Z",
              "updated_at": "2025-10-06T09:11:11.000000Z",
              "category": {
                "id": 4,
                "name": "Design",
                "image": "storage/categories/68dd364f26e71.svg",
                "parent_id": null,
                "created_at": "2025-09-07T08:44:46.000000Z",
                "updated_at": "2025-10-01T14:10:23.000000Z"
              },
              "subcategory": {
                "id": 5,
                "name": "Web",
                "image": null,
                "parent_id": 4,
                "created_at": "2025-09-07T08:44:46.000000Z",
                "updated_at": "2025-09-07T08:44:46.000000Z"
              },
              "attachments": [
                {
                  "id": 2,
                  "file_path": "storage/projects/68e3876bcc657.PNG",
                  "user_id": 2,
                  "project_id": 5,
                  "created_at": "2025-10-06T09:10:03.000000Z",
                  "updated_at": "2025-10-06T09:11:11.000000Z"
                }
              ],
              "user": {
                "id": 2,
                "name": "Ahmed test",
                "email": "freelancer2@gmail.com",
                "email_verified_at": "2025-09-11T11:33:20.000000Z",
                "phone": "+966501234567",
                "country_code": null,
                "phone_number": null,
                "type": "client",
                "is_active": true,
                "about_me": "Professional Full Stack Developer",
                "profile_picture": "storage/profiles/68d28083a3dd1.PNG",
                "company": "شركة التقنيات المتقدمة",
                "country": "asd",
                "city": "asd",
                "is_verified": false,
                "user_verification_status": "approved",
                "created_at": "2025-09-03T11:34:36.000000Z",
                "updated_at": "2025-09-23T11:12:03.000000Z",
                "rate": 0,
                "languages": null,
                "reviews": null
              }
            }
          }
        headers: []
        description: 'Project created successfully'
        custom: []
      -
        status: 400
        content: |-
          {
            "status": false,
            "error_num": 400,
            "message": "The selected category id is invalid."
          }
        headers: []
        description: 'Invalid category'
        custom: []
      -
        status: 400
        content: |-
          {
            "status": false,
            "error_num": 400,
            "message": "The selected subcategory id is invalid."
          }
        headers: []
        description: 'Invalid subcategory'
        custom: []
      -
        status: 400
        content: |-
          {
            "status": false,
            "error_num": 400,
            "message": "The selected attachment_ids.0 is invalid."
          }
        headers: []
        description: 'Invalid attachment'
        custom: []
      -
        status: 400
        content: |-
          {
            "status": false,
            "error_num": 400,
            "message": "The title field is required."
          }
        headers: []
        description: 'Validation error'
        custom: []
      -
        status: 400
        content: |-
          {
            "status": false,
            "error_num": 400,
            "message": "The selected deadline unit is invalid."
          }
        headers: []
        description: 'Invalid deadline unit'
        custom: []
      -
        status: 401
        content: |-
          {
            "status": false,
            "error_num": 401,
            "message": "Unauthenticated"
          }
        headers: []
        description: Unauthenticated
        custom: []
    responseFields: []
    auth: []
    controller: null
    method: null
    route: null
    custom: []
  -
    httpMethods:
      - POST
    uri: 'api/clients/projects/{id}/end'
    metadata:
      groupName: 'Client Project Management'
      groupDescription: ''
      subgroup: ''
      subgroupDescription: ''
      title: 'End project'
      description: |-
        Mark a project as completed or ended by the client. This endpoint allows
        the project owner (client) to close their project, stopping any further
        proposal submissions and marking the project as finished. This action
        is typically performed when the client has found a suitable freelancer
        or decides to cancel the project.
      authenticated: true
      deprecated: false
      custom: []
    headers:
      Content-Type: application/json
      Accept: application/json
      Accept-Language: en
    urlParameters:
      id:
        name: id
        description: 'The ID of the project to end. Must be owned by the authenticated client.'
        required: true
        example: 5
        type: integer
        enumValues: []
        exampleWasSpecified: true
        nullable: false
        custom: []
    cleanUrlParameters:
      id: 5
    queryParameters: []
    cleanQueryParameters: []
    bodyParameters: []
    cleanBodyParameters: []
    fileParameters: []
    responses:
      -
        status: 200
        content: |-
          {
            "status": true,
            "error_num": null,
            "message": "Project ended successfully"
          }
        headers: []
        description: 'Project ended successfully'
        custom: []
      -
        status: 200
        content: |-
          {
            "status": true,
            "error_num": null,
            "message": "Project is already ended"
          }
        headers: []
        description: 'Project already ended'
        custom: []
      -
        status: 400
        content: |-
          {
            "status": false,
            "error_num": null,
            "message": "Project cannot be ended in current status"
          }
        headers: []
        description: 'Cannot end project in current status'
        custom: []
      -
        status: 400
        content: |-
          {
            "status": false,
            "error_num": null,
            "message": "Invalid project ID provided"
          }
        headers: []
        description: 'Invalid project ID'
        custom: []
      -
        status: 401
        content: |-
          {
            "status": false,
            "error_num": 401,
            "message": "Unauthenticated"
          }
        headers: []
        description: Unauthenticated
        custom: []
      -
        status: 403
        content: |-
          {
            "status": false,
            "error_num": null,
            "message": "You are not authorized to end this project"
          }
        headers: []
        description: 'Unauthorized - not project owner'
        custom: []
      -
        status: 403
        content: |-
          {
            "status": false,
            "error_num": 403,
            "message": "Access denied. Client role required."
          }
        headers: []
        description: 'Not a client'
        custom: []
      -
        status: 404
        content: |-
          {
            "status": false,
            "error_num": null,
            "message": "Project not found"
          }
        headers: []
        description: 'Project not found'
        custom: []
    responseFields: []
    auth: []
    controller: null
    method: null
    route: null
    custom: []
