## Autogenerated by Scribe. DO NOT MODIFY.

name: 'Freelancer Proposals'
description: ''
endpoints:
  -
    httpMethods:
      - GET
    uri: api/freelancers/proposals
    metadata:
      groupName: 'Freelancer Proposals'
      groupDescription: ''
      subgroup: ''
      subgroupDescription: ''
      title: 'List freelancer proposals'
      description: |-
        Retrieve a paginated list of proposals submitted by the authenticated freelancer.
        This endpoint allows freelancers to view and filter their submitted proposals
        with search functionality and status filtering. Results include complete proposal
        details with associated project information, status updates, and client responses.
      authenticated: true
      deprecated: false
      custom: []
    headers:
      Content-Type: application/json
      Accept: application/json
      Accept-Language: en
    urlParameters: []
    cleanUrlParameters: []
    queryParameters:
      status:
        name: status
        description: 'optional Filter proposals by status. Available values: submitted, viewed, accepted, rejected, withdrawn.'
        required: false
        example:
          - viewed
          - accepted
        type: 'string[]'
        enumValues: []
        exampleWasSpecified: true
        nullable: false
        custom: []
      search:
        name: search
        description: 'optional Search proposals by project title, cover letter content, or project description keywords.'
        required: false
        example: 'website development'
        type: string
        enumValues: []
        exampleWasSpecified: true
        nullable: true
        custom: []
      per_page:
        name: per_page
        description: 'optional Number of proposals per page (default: 16, minimum: 1, maximum: 50).'
        required: false
        example: 10
        type: integer
        enumValues: []
        exampleWasSpecified: true
        nullable: true
        custom: []
    cleanQueryParameters:
      status:
        - viewed
        - accepted
      search: 'website development'
      per_page: 10
    bodyParameters: []
    cleanBodyParameters: []
    fileParameters: []
    responses:
      -
        status: 200
        content: |-
          {
            "status": true,
            "error_num": null,
            "message": "Proposals retrieved successfully",
            "data": {
              "current_page": 1,
              "data": [
                {
                  "id": 15,
                  "cover_letter": "I have 5+ years of experience in e-commerce development using Laravel and Vue.js. I've built similar platforms with payment integration and can deliver this project within your timeline.",
                  "estimated_time_unit": "days",
                  "estimated_time": 14,
                  "fees_type": "fixed",
                  "bid_amount": "1500.00",
                  "status": "pending",
                  "created_at": "2025-10-07T10:30:00.000000Z",
                  "updated_at": "2025-10-07T10:30:00.000000Z",
                  "project": {
                    "id": 5,
                    "title": "E-commerce Website Development",
                    "description": "I need a complete e-commerce website with product catalog, shopping cart, payment integration, and admin dashboard.",
                    "budget": "$1000-$2000",
                    "deadline_unit": "days",
                    "deadline": "12",
                    "status": "active",
                    "proposals_count": 8,
                    "category": {
                      "id": 4,
                      "name": "Programming"
                    },
                    "user": {
                      "id": 2,
                      "name": "Ahmed Test",
                      "company": "Tech Solutions Ltd",
                      "profile_picture": "storage/profiles/68d28083a3dd1.PNG",
                      "is_verified": true
                    }
                  },
                  "attachments": [
                    {
                      "id": 2,
                      "file_path": "storage/proposals/68e3876bcc657.PDF",
                      "file_name": "portfolio_sample.pdf",
                      "created_at": "2025-10-07T10:29:45.000000Z"
                    }
                  ],
                  "response_received": false,
                  "days_since_submission": 2,
                  "competition_level": "medium"
                },
                {
                  "id": 12,
                  "cover_letter": "I'm a UI/UX designer with expertise in mobile app design. I can create a modern, user-friendly interface that will enhance user experience.",
                  "estimated_time_unit": "days",
                  "estimated_time": 7,
                  "fees_type": "fixed",
                  "bid_amount": "750.00",
                  "status": "accepted",
                  "created_at": "2025-10-05T14:20:00.000000Z",
                  "updated_at": "2025-10-06T16:45:00.000000Z",
                  "project": {
                    "id": 3,
                    "title": "Mobile App UI/UX Design",
                    "description": "Looking for a talented designer to create modern and user-friendly UI/UX design for a mobile application.",
                    "budget": "$500-$800",
                    "deadline_unit": "days",
                    "deadline": "7",
                    "status": "in_progress",
                    "proposals_count": 5,
                    "category": {
                      "id": 2,
                      "name": "Design & Creative"
                    },
                    "user": {
                      "id": 8,
                      "name": "Sarah Johnson",
                      "company": "FitTech Solutions",
                      "profile_picture": "storage/profiles/68d28083a3dd2.PNG",
                      "is_verified": true
                    }
                  },
                  "attachments": [],
                  "response_received": true,
                  "days_since_submission": 5,
                  "competition_level": "low"
                }
              ],
              "first_page_url": "http://localhost/api/freelancers/proposals?page=1",
              "from": 1,
              "last_page": 3,
              "last_page_url": "http://localhost/api/freelancers/proposals?page=3",
              "links": [
                {
                  "url": null,
                  "label": "&laquo; Previous",
                  "active": false
                },
                {
                  "url": "http://localhost/api/freelancers/proposals?page=1",
                  "label": "1",
                  "active": true
                },
                {
                  "url": "http://localhost/api/freelancers/proposals?page=2",
                  "label": "2",
                  "active": false
                },
                {
                  "url": "http://localhost/api/freelancers/proposals?page=2",
                  "label": "Next &raquo;",
                  "active": false
                }
              ],
              "next_page_url": "http://localhost/api/freelancers/proposals?page=2",
              "path": "http://localhost/api/freelancers/proposals",
              "per_page": 16,
              "prev_page_url": null,
              "to": 16,
              "total": 42
            }
          }
        headers: []
        description: 'Proposals retrieved successfully'
        custom: []
      -
        status: 200
        content: |-
          {
            "status": true,
            "error_num": null,
            "message": "No proposals found",
            "data": {
              "current_page": 1,
              "data": [],
              "first_page_url": "http://localhost/api/freelancers/proposals?page=1",
              "from": null,
              "last_page": 1,
              "last_page_url": "http://localhost/api/freelancers/proposals?page=1",
              "links": [
                {
                  "url": null,
                  "label": "&laquo; Previous",
                  "active": false
                },
                {
                  "url": "http://localhost/api/freelancers/proposals?page=1",
                  "label": "1",
                  "active": true
                },
                {
                  "url": null,
                  "label": "Next &raquo;",
                  "active": false
                }
              ],
              "next_page_url": null,
              "path": "http://localhost/api/freelancers/proposals",
              "per_page": 16,
              "prev_page_url": null,
              "to": null,
              "total": 0
            }
          }
        headers: []
        description: 'No proposals found'
        custom: []
      -
        status: 400
        content: |-
          {
            "status": false,
            "error_num": 400,
            "message": "The selected status is invalid."
          }
        headers: []
        description: 'Invalid status filter'
        custom: []
      -
        status: 400
        content: |-
          {
            "status": false,
            "error_num": 400,
            "message": "The per page field must be between 1 and 50."
          }
        headers: []
        description: 'Invalid per_page parameter'
        custom: []
      -
        status: 401
        content: |-
          {
            "status": false,
            "error_num": 401,
            "message": "Unauthenticated"
          }
        headers: []
        description: Unauthenticated
        custom: []
      -
        status: 403
        content: |-
          {
            "status": false,
            "error_num": 403,
            "message": "Access denied. Freelancer role required."
          }
        headers: []
        description: 'Not a freelancer'
        custom: []
      -
        status: 403
        content: |-
          {
            "status": false,
            "error_num": 403,
            "message": "Your freelancer account is not approved yet."
          }
        headers: []
        description: 'Freelancer not approved'
        custom: []
    responseFields: []
    auth: []
    controller: null
    method: null
    route: null
    custom: []
  -
    httpMethods:
      - POST
    uri: api/freelancers/proposals
    metadata:
      groupName: 'Freelancer Proposals'
      groupDescription: ''
      subgroup: ''
      subgroupDescription: ''
      title: 'Store Proposal'
      description: |-
        Submit a proposal for a specific project. This endpoint allows authenticated freelancers
        to submit their bid and proposal details for client projects. The proposal includes
        cover letter, estimated time, bid amount, and optional attachments. Freelancers can
        only submit one proposal per project, and the project must be accepting proposals.
      authenticated: true
      deprecated: false
      custom: []
    headers:
      Content-Type: application/json
      Accept: application/json
      Accept-Language: en
    urlParameters: []
    cleanUrlParameters: []
    queryParameters: []
    cleanQueryParameters: []
    bodyParameters:
      cover_letter:
        name: cover_letter
        description: "Detailed cover letter explaining your approach, experience, and why you're the best fit for this project."
        required: true
        example: "I have 5+ years of experience in e-commerce development using Laravel and Vue.js. I've built similar platforms with payment integration and can deliver this project within your timeline."
        type: string
        enumValues: []
        exampleWasSpecified: true
        nullable: false
        custom: []
      estimated_time_unit:
        name: estimated_time_unit
        description: 'Time unit for delivery estimate. Must be one of: hours, days, weeks, months.'
        required: true
        example: days
        type: string
        enumValues: []
        exampleWasSpecified: true
        nullable: false
        custom: []
      estimated_time:
        name: estimated_time
        description: 'Number of time units needed to complete the project.'
        required: true
        example: 14
        type: integer
        enumValues: []
        exampleWasSpecified: true
        nullable: false
        custom: []
      fees_type:
        name: fees_type
        description: 'Type of pricing structure. Must be one of: fixed, hourly.'
        required: true
        example: fixed
        type: string
        enumValues: []
        exampleWasSpecified: true
        nullable: false
        custom: []
      bid_amount:
        name: bid_amount
        description: 'Your bid amount for the project in USD. Must be a positive number.'
        required: true
        example: '1500.00'
        type: numeric
        enumValues: []
        exampleWasSpecified: true
        nullable: false
        custom: []
      project_id:
        name: project_id
        description: "ID of the project you're submitting a proposal for. Must be an active project accepting proposals."
        required: true
        example: 5
        type: integer
        enumValues: []
        exampleWasSpecified: true
        nullable: false
        custom: []
      relevant_links:
        name: relevant_links
        description: 'optional Array of URLs to showcase your portfolio,                                                                                                                     previous work, or relevant profiles.'
        required: false
        example:
          - 'http://portfolio.example.com'
          - 'http://github.com/example'
        type: 'string[]'
        enumValues: []
        exampleWasSpecified: true
        nullable: false
        custom: []
      attachment_ids:
        name: attachment_ids
        description: 'optional Array of attachment IDs to include with your proposal (portfolio samples, certificates, etc.). Files must be uploaded first using upload endpoint.'
        required: false
        example:
          - 2
          - 3
          - 4
        type: 'integer[]'
        enumValues: []
        exampleWasSpecified: true
        nullable: true
        custom: []
    cleanBodyParameters:
      cover_letter: "I have 5+ years of experience in e-commerce development using Laravel and Vue.js. I've built similar platforms with payment integration and can deliver this project within your timeline."
      estimated_time_unit: days
      estimated_time: 14
      fees_type: fixed
      bid_amount: '1500.00'
      project_id: 5
      relevant_links:
        - 'http://portfolio.example.com'
        - 'http://github.com/example'
      attachment_ids:
        - 2
        - 3
        - 4
    fileParameters: []
    responses:
      -
        status: 200
        content: |-
          {
            "status": true,
            "error_num": null,
            "message": "Proposal submitted successfully",
            "data": {
              "id": 15,
              "cover_letter": "I have 5+ years of experience in e-commerce development using Laravel and Vue.js. I've built similar platforms with payment integration and can deliver this project within your timeline. My portfolio includes 12+ successful e-commerce projects.",
              "estimated_time_unit": "days",
              "estimated_time": 14,
              "fees_type": "fixed",
              "bid_amount": "1500.00",
              "status": "submitted",
              "relevant_links": ["http://portfolio.example.com", "http://github.com/example"],
              "created_at": "2025-10-07T10:30:00.000000Z",
              "updated_at": "2025-10-07T10:30:00.000000Z",
              "project": {
                "id": 5,
                "title": "E-commerce Website Development",
                "budget": "$1000-$2000",
                "deadline_unit": "days",
                "deadline": "12",
                "status": "active",
                "category": {
                  "id": 4,
                  "name": "Programming"
                }
              },
              "user": {
                "id": 7,
                "name": "Mohammad Ali",
                "profile_picture": "storage/profiles/68d28083a3dd3.PNG",
                "rating": 4.8,
                "completed_projects": 23,
                "location": "Cairo, Egypt"
              },
              "attachments": [
                {
                  "id": 2,
                  "file_path": "storage/proposals/68e3876bcc657.PDF",
                  "file_name": "portfolio_sample.pdf",
                  "user_id": 7,
                  "proposal_id": 15,
                  "created_at": "2025-10-07T10:29:45.000000Z",
                  "updated_at": "2025-10-07T10:30:00.000000Z"
                }
              ],
            }
          }
        headers: []
        description: 'Proposal submitted successfully'
        custom: []
      -
        status: 400
        content: |-
          {
            "status": false,
            "error_num": 400,
            "message": "You have already submitted a proposal for this project"
          }
        headers: []
        description: 'Already submitted proposal'
        custom: []
      -
        status: 400
        content: |-
          {
            "status": false,
            "error_num": 400,
            "message": "This project is no longer accepting proposals"
          }
        headers: []
        description: 'Project not accepting proposals'
        custom: []
      -
        status: 400
        content: |-
          {
            "status": false,
            "error_num": 400,
            "message": "The selected project id is invalid."
          }
        headers: []
        description: 'Invalid project'
        custom: []
      -
        status: 400
        content: |-
          {
            "status": false,
            "error_num": 400,
            "message": "You cannot submit a proposal for your own project"
          }
        headers: []
        description: 'Own project'
        custom: []
      -
        status: 400
        content: |-
          {
            "status": false,
            "error_num": 400,
            "message": "The selected attachment_ids.0 is invalid."
          }
        headers: []
        description: 'Invalid attachment'
        custom: []
      -
        status: 400
        content: |-
          {
            "status": false,
            "error_num": 400,
            "message": "The cover letter field is required."
          }
        headers: []
        description: 'Validation error'
        custom: []
      -
        status: 400
        content: |-
          {
            "status": false,
            "error_num": 400,
            "message": "The bid amount must be a positive number."
          }
        headers: []
        description: 'Invalid bid amount'
        custom: []
      -
        status: 400
        content: |-
          {
            "status": false,
            "error_num": 400,
            "message": "The selected fees type is invalid."
          }
        headers: []
        description: 'Invalid fees type'
        custom: []
      -
        status: 400
        content: |-
          {
            "status": false,
            "error_num": 400,
            "message": "The selected estimated time unit is invalid."
          }
        headers: []
        description: 'Invalid time unit'
        custom: []
      -
        status: 401
        content: |-
          {
            "status": false,
            "error_num": 401,
            "message": "Unauthenticated"
          }
        headers: []
        description: Unauthenticated
        custom: []
      -
        status: 403
        content: |-
          {
            "status": false,
            "error_num": 403,
            "message": "Access denied. Freelancer role required."
          }
        headers: []
        description: 'Not a freelancer'
        custom: []
      -
        status: 403
        content: |-
          {
            "status": false,
            "error_num": 403,
            "message": "Your freelancer account is not approved yet."
          }
        headers: []
        description: 'Freelancer not approved'
        custom: []
    responseFields: []
    auth: []
    controller: null
    method: null
    route: null
    custom: []
