## Autogenerated by Scribe. DO NOT MODIFY.

name: 'Public Search'
description: ''
endpoints:
  -
    httpMethods:
      - GET
    uri: api/search/service
    metadata:
      groupName: 'Public Search'
      groupDescription: ''
      subgroup: ''
      subgroupDescription: ''
      title: 'Search services'
      description: |-
        Search and filter services based on various criteria including text search, category,
        subcategory, hashtags, and price range. This endpoint provides comprehensive service
        discovery functionality with multiple filtering options. Results are paginated with
        16 services per page.
      authenticated: false
      deprecated: false
      custom: []
    headers:
      Content-Type: application/json
      Accept: application/json
      Accept-Language: en
    urlParameters: []
    cleanUrlParameters: []
    queryParameters: []
    cleanQueryParameters: []
    bodyParameters:
      search:
        name: search
        description: 'optional Search term to find services by title, description, or keywords (max 5000 characters).'
        required: false
        example: 'wordpress website development'
        type: string
        enumValues: []
        exampleWasSpecified: true
        nullable: true
        custom: []
      category_id:
        name: category_id
        description: 'optional Filter services by main category ID. Must be a valid category.'
        required: false
        example: 4
        type: integer
        enumValues: []
        exampleWasSpecified: true
        nullable: true
        custom: []
      subcategory_id:
        name: subcategory_id
        description: 'optional Filter services by subcategory ID. Must be a valid subcategory.'
        required: false
        example: 5
        type: integer
        enumValues: []
        exampleWasSpecified: true
        nullable: true
        custom: []
      hashtag:
        name: hashtag
        description: 'optional Filter services by hashtag keyword. Search for services tagged with specific keywords.'
        required: false
        example: php
        type: string
        enumValues: []
        exampleWasSpecified: true
        nullable: true
        custom: []
      price_min:
        name: price_min
        description: 'optional Minimum price filter. Only services with price >= this value will be returned.'
        required: false
        example: 100.0
        type: number
        enumValues: []
        exampleWasSpecified: true
        nullable: true
        custom: []
      price_max:
        name: price_max
        description: 'optional Maximum price filter. Only services with price <= this value will be returned.'
        required: false
        example: 1000.0
        type: number
        enumValues: []
        exampleWasSpecified: true
        nullable: true
        custom: []
    cleanBodyParameters:
      search: 'wordpress website development'
      category_id: 4
      subcategory_id: 5
      hashtag: php
      price_min: 100.0
      price_max: 1000.0
    fileParameters: []
    responses:
      -
        status: 200
        content: |-
          {
            "status": true,
            "error_num": null,
            "message": "Success",
            "data": {
              "current_page": 1,
              "data": [
                {
                  "id": 4,
                  "title": "WordPress Website Development",
                  "description": "I will create a professional WordPress website with custom design and functionality tailored to your business needs",
                  "category_id": 4,
                  "subcategory_id": 5,
                  "category": {
                    "id": 4,
                    "name": "Programming",
                    "parent_id": null,
                    "created_at": "2025-09-07T08:44:46.000000Z",
                    "updated_at": "2025-09-07T08:44:46.000000Z"
                  },
                  "subcategory": {
                    "id": 5,
                    "name": "Web",
                    "parent_id": 4,
                    "created_at": "2025-09-07T08:44:46.000000Z",
                    "updated_at": "2025-09-07T08:44:46.000000Z"
                  },
                  "delivery_time": 7,
                  "delivery_time_unit": "days",
                  "service_fees_type": "fixed",
                  "price": "500.00",
                  "cover_photo": "storage/services/68d3e4ae826cd.PNG",
                  "faqs": null,
                  "attachments": null,
                  "hashtags": null,
                  "user_id": 3,
                  "created_at": "2025-09-24T12:31:42.000000Z",
                  "updated_at": "2025-09-24T12:31:42.000000Z"
                },
                {
                  "id": 8,
                  "title": "E-commerce Website Development",
                  "description": "I will build a complete e-commerce website with payment integration, product management, and admin dashboard",
                  "category_id": 4,
                  "subcategory_id": 5,
                  "category": {
                    "id": 4,
                    "name": "Programming",
                    "parent_id": null,
                    "created_at": "2025-09-07T08:44:46.000000Z",
                    "updated_at": "2025-09-07T08:44:46.000000Z"
                  },
                  "subcategory": {
                    "id": 5,
                    "name": "Web",
                    "parent_id": 4,
                    "created_at": "2025-09-07T08:44:46.000000Z",
                    "updated_at": "2025-09-07T08:44:46.000000Z"
                  },
                  "delivery_time": 14,
                  "delivery_time_unit": "days",
                  "service_fees_type": "fixed",
                  "price": "750.00",
                  "cover_photo": "storage/services/68d3e4ae826ce.PNG",
                  "faqs": null,
                  "attachments": null,
                  "hashtags": null,
                  "user_id": 5,
                  "created_at": "2025-09-25T09:15:30.000000Z",
                  "updated_at": "2025-09-25T09:15:30.000000Z"
                }
              ],
              "first_page_url": "http://localhost/api/search/services?page=1",
              "from": 1,
              "last_page": 3,
              "last_page_url": "http://localhost/api/search/services?page=3",
              "links": [
                {
                  "url": null,
                  "label": "&laquo; Previous",
                  "active": false
                },
                {
                  "url": "http://localhost/api/search/services?page=1",
                  "label": "1",
                  "active": true
                },
                {
                  "url": "http://localhost/api/search/services?page=2",
                  "label": "2",
                  "active": false
                },
                {
                  "url": "http://localhost/api/search/services?page=3",
                  "label": "3",
                  "active": false
                },
                {
                  "url": "http://localhost/api/search/services?page=2",
                  "label": "Next &raquo;",
                  "active": false
                }
              ],
              "next_page_url": "http://localhost/api/search/services?page=2",
              "path": "http://localhost/api/search/services",
              "per_page": 16,
              "prev_page_url": null,
              "to": 16,
              "total": 45
            }
          }
        headers: []
        description: 'Services found successfully'
        custom: []
      -
        status: 200
        content: |-
          {
            "status": true,
            "error_num": null,
            "message": "Success",
            "data": {
              "current_page": 1,
              "data": [],
              "first_page_url": "http://localhost/api/search/services?page=1",
              "from": null,
              "last_page": 1,
              "last_page_url": "http://localhost/api/search/services?page=1",
              "links": [
                {
                  "url": null,
                  "label": "&laquo; Previous",
                  "active": false
                },
                {
                  "url": "http://localhost/api/search/services?page=1",
                  "label": "1",
                  "active": true
                },
                {
                  "url": null,
                  "label": "Next &raquo;",
                  "active": false
                }
              ],
              "next_page_url": null,
              "path": "http://localhost/api/search/services",
              "per_page": 16,
              "prev_page_url": null,
              "to": null,
              "total": 0
            }
          }
        headers: []
        description: 'No services found'
        custom: []
      -
        status: 400
        content: |-
          {
            "status": false,
            "error_num": 400,
            "message": "The selected category id is invalid."
          }
        headers: []
        description: 'Invalid category'
        custom: []
      -
        status: 400
        content: |-
          {
            "status": false,
            "error_num": 400,
            "message": "The selected subcategory id is invalid."
          }
        headers: []
        description: 'Invalid subcategory'
        custom: []
      -
        status: 400
        content: |-
          {
            "status": false,
            "error_num": 400,
            "message": "The selected hashtag_ids.0 is invalid."
          }
        headers: []
        description: 'Invalid hashtag'
        custom: []
      -
        status: 400
        content: |-
          {
            "status": false,
            "error_num": 400,
            "message": "The price min field must be at least 0."
          }
        headers: []
        description: 'Invalid price range'
        custom: []
      -
        status: 400
        content: |-
          {
            "status": false,
            "error_num": 400,
            "message": "The search field must not be greater than 5000 characters."
          }
        headers: []
        description: 'Search term too long'
        custom: []
    responseFields: []
    auth: []
    controller: null
    method: null
    route: null
    custom: []
